{
  "providers": {
    "awscloudformation": {
      "AuthRoleName": "amplify-foodapp-dev-201527-authRole",
      "UnauthRoleArn": "arn:aws:iam::202890522915:role/amplify-foodapp-dev-201527-unauthRole",
      "AuthRoleArn": "arn:aws:iam::202890522915:role/amplify-foodapp-dev-201527-authRole",
      "Region": "us-east-1",
      "DeploymentBucketName": "amplify-foodapp-dev-201527-deployment",
      "UnauthRoleName": "amplify-foodapp-dev-201527-unauthRole",
      "StackName": "amplify-foodapp-dev-201527",
      "StackId": "arn:aws:cloudformation:us-east-1:202890522915:stack/amplify-foodapp-dev-201527/ab933670-aba4-11eb-8d8b-0e9878534861",
      "AmplifyAppId": "d3hrkwljph1459"
    }
  },
  "auth": {
    "foodappbf1e56d3": {
      "service": "Cognito",
      "providerPlugin": "awscloudformation",
      "dependsOn": [],
      "customAuth": false,
      "output": {
        "UserPoolId": "us-east-1_Mi7tUA8xm",
        "AppClientIDWeb": "282aau6t0musjj8u31epnfud62",
        "AppClientID": "4ubolaioo9uamsielsnsgod7em",
        "IdentityPoolId": "us-east-1:e013ecfc-b373-4412-9fdb-aec92fa7ac06",
        "IdentityPoolName": "foodapp64c63010_identitypool_64c63010__dev",
        "UserPoolName": "foodappbf1e56d3_userpool_bf1e56d3"
      },
      "lastPushTimeStamp": "2021-05-08T03:33:28.841Z",
      "providerMetadata": {
        "s3TemplateURL": "https://s3.amazonaws.com/amplify-foodapp-dev-201527-deployment/amplify-cfn-templates/auth/foodappbf1e56d3-cloudformation-template.yml",
        "logicalId": "authfoodappbf1e56d3"
      },
      "lastPushDirHash": "nRXXIfhffST+TndEmeUzC7rOtYQ="
    },
    "userPoolGroups": {
      "service": "Cognito-UserPool-Groups",
      "providerPlugin": "awscloudformation",
      "dependsOn": [
        {
          "category": "auth",
          "resourceName": "foodappbf1e56d3",
          "attributes": [
            "UserPoolId",
            "AppClientIDWeb",
            "AppClientID"
          ]
        }
      ],
      "output": {
        "UsersGroupRole": "arn:aws:iam::202890522915:role/us-east-1_Mi7tUA8xm-UsersGroupRole",
        "AdminGroupRole": "arn:aws:iam::202890522915:role/us-east-1_Mi7tUA8xm-AdminGroupRole"
      },
      "lastPushTimeStamp": "2021-05-08T03:33:28.841Z",
      "providerMetadata": {
        "s3TemplateURL": "https://s3.amazonaws.com/amplify-foodapp-dev-201527-deployment/amplify-cfn-templates/auth/template.json",
        "logicalId": "authuserPoolGroups"
      },
      "lastPushDirHash": "zqDsUWssZk2NvNJYHsihjHCMGHk="
    }
  },
  "api": {
    "foodapp": {
      "service": "AppSync",
      "providerPlugin": "awscloudformation",
      "output": {
        "authConfig": {
          "defaultAuthentication": {
            "authenticationType": "AMAZON_COGNITO_USER_POOLS",
            "userPoolConfig": {
              "userPoolId": "authfoodappbf1e56d3"
            }
          },
          "additionalAuthenticationProviders": []
        },
        "GraphQLAPIIdOutput": "xczlgfsi6rckrclk6mb463hlti",
        "GraphQLAPIEndpointOutput": "https://lldqyzflnvdt7gqy65xjdrurta.appsync-api.us-east-1.amazonaws.com/graphql"
      },
      "lastPushTimeStamp": "2021-05-08T03:33:28.809Z",
      "providerMetadata": {
        "s3TemplateURL": "https://s3.amazonaws.com/amplify-foodapp-dev-201527-deployment/amplify-cfn-templates/api/cloudformation-template.json",
        "logicalId": "apifoodapp"
      }
    },
    "AdminQueries": {
      "service": "API Gateway",
      "providerPlugin": "awscloudformation",
      "dependsOn": [
        {
          "category": "auth",
          "resourceName": "foodappbf1e56d3",
          "attributes": [
            "UserPoolId"
          ]
        },
        {
          "category": "function",
          "resourceName": "AdminQueries7e8ff15f",
          "attributes": [
            "Arn",
            "Name"
          ]
        }
      ],
      "output": {
        "ApiName": "AdminQueries",
        "RootUrl": "https://hhksxgdiq9.execute-api.us-east-1.amazonaws.com/dev",
        "ApiId": "hhksxgdiq9"
      },
      "lastPushTimeStamp": "2021-05-08T03:33:28.817Z",
      "providerMetadata": {
        "s3TemplateURL": "https://s3.amazonaws.com/amplify-foodapp-dev-201527-deployment/amplify-cfn-templates/api/admin-queries-cloudformation-template.json",
        "logicalId": "apiAdminQueries"
      }
    }
  },
  "function": {
    "AdminQueries7e8ff15f": {
      "service": "Lambda",
      "providerPlugin": "awscloudformation",
      "build": true,
      "dependsOn": [
        {
          "category": "auth",
          "resourceName": "foodappbf1e56d3",
          "attributes": [
            "UserPoolId"
          ]
        }
      ],
      "output": {
        "Region": "us-east-1",
        "Arn": "arn:aws:lambda:us-east-1:202890522915:function:AdminQueries7e8ff15f-dev",
        "Name": "AdminQueries7e8ff15f-dev",
        "LambdaExecutionRole": "AdminQueries7e8ff15fLambdaRole-dev"
      },
      "lastPushTimeStamp": "2021-05-08T03:33:28.841Z",
      "providerMetadata": {
        "s3TemplateURL": "https://s3.amazonaws.com/amplify-foodapp-dev-201527-deployment/amplify-cfn-templates/function/AdminQueries7e8ff15f-cloudformation-template.json",
        "logicalId": "functionAdminQueries7e8ff15f"
      },
      "s3Bucket": {
        "deploymentBucketName": "amplify-foodapp-dev-201527-deployment",
        "s3Key": "amplify-builds/AdminQueries7e8ff15f-6a334579516c6a2b6366-build.zip"
      },
      "lastBuildTimeStamp": "2021-05-08T03:31:13.574Z",
      "lastPackageTimeStamp": "2021-05-08T03:31:49.975Z",
      "distZipFilename": "AdminQueries7e8ff15f-6a334579516c6a2b6366-build.zip",
      "lastPushDirHash": "retzUd2mazV7HPePrmYbWEucxeU="
    }
  }
}