{
    "AWSTemplateFormatVersion": "2010-09-09",
    "Parameters": {
        "authfoodappbf1e56d3UserPoolId": {
            "Type": "String",
            "Default": "authfoodappbf1e56d3UserPoolId"
        },
        
        "authfoodappbf1e56d3AppClientID": {
            "Type": "String",
            "Default": "authfoodappbf1e56d3AppClientID"
        },
        "authfoodappbf1e56d3AppClientIDWeb": {
            "Type": "String",
            "Default": "authfoodappbf1e56d3AppClientIDWeb"
        },
        "AuthRoleArn": {
            "Type": "String"
        },
        "UnauthRoleArn": {
            "Type": "String"
        },
        "env": {
            "Type": "String"
        }
    },
    "Conditions": {
        "ShouldNotCreateEnvResources": {
            "Fn::Equals": [
                {
                    "Ref": "env"
                },
                "NONE"
            ]
        }
    },
    "Resources": {
    
        "AdminGroup": {
          "Type" : "AWS::Cognito::UserPoolGroup",
          "Properties" : {
              "GroupName" : "Admin",
              "Precedence" : 1,
              
              "UserPoolId" : {
                "Ref": "authfoodappbf1e56d3UserPoolId"
              }
            }
        },
        
    
        "UsersGroup": {
          "Type" : "AWS::Cognito::UserPoolGroup",
          "Properties" : {
              "GroupName" : "Users",
              "Precedence" : 2,
              
              "UserPoolId" : {
                "Ref": "authfoodappbf1e56d3UserPoolId"
              }
            }
        },
        
    
    
    },
    
}
